Data Analyses and Methods – Butterfly Monitoring and Analyses
…
Code

ds <- gratia::data_slice(ts_flight_curve$data[, c("COUNT", "trimDAYNO")], trimDAYNO = evenly(trimDAYNO, n = 365))

x2_bs <- gratia::basis(mod, term = "s(trimDAYNO)", data = ds)

Warning: The `term` argument of `basis()` is deprecated as of gratia 0.8.9.9.
ℹ Please use the `select` argument instead.

Code

x2_bs[x2_bs$.bf==1,]

# A tibble: 365 × 6
   .smooth      .type .by   .bf   .value trimDAYNO
   <chr>        <chr> <chr> <fct>  <dbl>     <dbl>
 1 s(trimDAYNO) CRS   <NA>  1       11.7         1
 2 s(trimDAYNO) CRS   <NA>  1       11.6         2
 3 s(trimDAYNO) CRS   <NA>  1       11.4         3
 4 s(trimDAYNO) CRS   <NA>  1       11.3         4
 5 s(trimDAYNO) CRS   <NA>  1       11.2         5
 6 s(trimDAYNO) CRS   <NA>  1       11.0         6
 7 s(trimDAYNO) CRS   <NA>  1       10.9         7
 8 s(trimDAYNO) CRS   <NA>  1       10.8         8
 9 s(trimDAYNO) CRS   <NA>  1       10.6         9
10 s(trimDAYNO) CRS   <NA>  1       10.5        10
# ℹ 355 more rows
…
